[start]
20160101	0	20300101	0	50700	999999	0	0	1	1	0	150	0	0	0	0	7500	0	2000	0	500	0	0	0	Some Cats only appear here! All Cats here are Rare or above.
20180109	1100	20300101	1100	50700	999999	0	0	0	1	0	0	0	0	10000	0	0	0	0	0	0	0	0	0	
20170101	0	20300101	0	80200	999999	0	0	2	3	0	30	0	0	0	0	7500	0	2000	0	500	0	0	0		0	30	0	0	0	0	7500	0	2000	0	500	0	0	0		0	30	0	0	0	0	7500	0	2000	0	500	0	0	0	
20170101	0	20300101	0	80200	999999	0	0	3	3	0	75	0	0	0	0	7500	0	2000	0	500	0	0	0		0	75	0	0	0	0	7500	0	2000	0	500	0	0	0		0	75	0	0	0	0	7500	0	2000	0	500	0	0	0	
20200424	1100	20300101	1100	90400	999999	0	0	1	4	-1	0	0	0	0	0	0	0	0	0	0	0	0	0		-1	0	0	0	0	0	0	0	0	0	0	0	0	0		-1	0	0	0	0	0	0	0	0	0	0	0	0	0		504	0	0	0	0	0	0	0	0	0	10000	0	0	0	Get an Uber Rare Cat!! 100% Uber drop Rate in the PLATINUM CAPSULES!
20200516	1100	20200602	000	90400	999999	0	0	0	4	-1	0	0	0	0	0	0	0	0	0	0	0	0	0		-1	0	0	0	0	0	0	0	0	0	0	0	0	0		-1	0	0	0	0	0	0	0	0	0	0	0	0	0		43	0	300	0	0	0	5100	0	3500	0	1400	0	0	0	【Limited Event】 Special chance for XP and Catamins! ★ On thru 6/1!
20200525	1100	20200527	1100	90400	999999	0	0	1	1	435	150	0	0	0	0	6970	0	2500	0	500	0	30	0	Ancient dragons of unmatched might! ★ Tap banner for info!
20200527	1100	20200529	1100	90400	999999	0	0	1	1	499	150	0	0	0	0	6970	0	2500	0	500	0	30	0	Hades of the Underworld lends his strength! ★ Tap banner for info!
20200529	1100	20200601	1100	90400	999999	0	0	1	1	500	150	0	0	0	0	6500	0	2600	0	900	0	0	0	Embrace the darkness! ★ Kasli the Scourge & higher drop rate!
20200601	1100	20200616	000	90500	999999	0	0	0	3	-1	0	0	0	0	0	0	0	0	0	0	0	0	0		-1	0	0	0	0	0	0	0	0	0	0	0	0	0		45	0	0	0	0	0	7400	0	2100	0	500	0	0	0	【Limited】 Collect Li'l Cats only during this event!★ Thru June 15th!
20200601	1100	20200615	1100	90500	999999	0	0	1	1	511	150	0	3928	0	0	7000	0	2500	0	500	0	0	0	Limited Shoumetsu Toshi Collab Capsules! ★ Tap banner for info!
20200601	1100	20200603	1100	90500	999999	0	0	1	2	-1	0	0	0	0	0	0	0	0	0	0	0	0	0		475	150	0	3928	0	0	6970	0	2500	0	500	0	30	0	Heroes of Japanese fantasy with 2 battle modes! ★ Tap banner for info!
20200603	1100	20200605	1100	90500	999999	0	0	1	2	-1	0	0	0	0	0	0	0	0	0	0	0	0	0		421	150	0	3928	0	0	6970	0	2500	0	500	0	30	0	Eldritch Cats(?) from beyond, with a mystery Legend! ★ Tap banner for info!
20200605	1100	20200607	1100	90500	999999	0	0	1	2	-1	0	0	0	0	0	0	0	0	0	0	0	0	0		448	150	0	3928	0	0	6970	0	2500	0	500	0	30	0	★ Elemental Pixies ★ Cosmic powers brought to life, with a mystery elemental!
20200607	1100	20200609	1100	90500	999999	0	0	1	2	-1	0	0	0	0	0	0	0	0	0	0	0	0	0		454	150	0	3928	0	0	7000	0	2500	0	500	0	0	0	Spooky beauties from the netherworld! It's the GIRLS & MONSTERS!
20200609	1100	20200612	1100	90500	999999	0	0	1	2	-1	0	0	0	0	0	0	0	0	0	0	0	0	0		427	150	0	3928	0	0	6970	0	2500	0	500	0	30	0	Slay your foes with the mighty Vajiras! ★ Tap banner for info!
20200612	1100	20200615	1100	90500	999999	0	0	1	2	-1	0	0	0	0	0	0	0	0	0	0	0	0	0		445	150	0	3928	0	0	6970	0	2500	0	500	1	30	0	Ultimate Cat artillery, with a top-secret Legend?! ★ Tap banner for info!
20200612	1100	20200615	1100	90500	999999	0	0	1	1	511	150	0	3928	0	0	7000	0	2500	0	500	1	0	0	Last Chance! Shoumetsu Toshi Set with 11-Draw Guarantee!
[end]
