[start]
20160101	0	20300101	0	50700	999999	0	0	1	1	0	150	0	0	0	0	7500	0	2000	0	500	0	0	0	Some Cats only appear here! All Cats here are Rare or above.
20180109	1100	20300101	1100	50700	999999	0	0	0	1	0	0	0	0	10000	0	0	0	0	0	0	0	0	0	
20170101	0	20300101	0	80200	999999	0	0	2	3	0	30	0	0	0	0	7500	0	2000	0	500	0	0	0		0	30	0	0	0	0	7500	0	2000	0	500	0	0	0		0	30	0	0	0	0	7500	0	2000	0	500	0	0	0	
20170101	0	20300101	0	80200	999999	0	0	3	3	0	75	0	0	0	0	7500	0	2000	0	500	0	0	0		0	75	0	0	0	0	7500	0	2000	0	500	0	0	0		0	75	0	0	0	0	7500	0	2000	0	500	0	0	0	
20200424	1100	20300101	1100	90400	999999	0	0	1	4	-1	0	0	0	0	0	0	0	0	0	0	0	0	0		-1	0	0	0	0	0	0	0	0	0	0	0	0	0		-1	0	0	0	0	0	0	0	0	0	0	0	0	0		504	0	0	0	0	0	0	0	0	0	10000	0	0	0	Get an Uber Rare Cat!! 100% Uber drop Rate in the PLATINUM CAPSULES!
20200601	1100	20200616	000	90500	999999	0	0	0	3	-1	0	0	0	0	0	0	0	0	0	0	0	0	0		-1	0	0	0	0	0	0	0	0	0	0	0	0	0		45	0	0	0	0	0	7400	0	2100	0	500	0	0	0	【Limited】 Collect Li'l Cats only during this event!★ Thru June 15th!
20200601	1100	20200615	1100	90500	999999	0	0	1	1	511	150	0	3928	0	0	7000	0	2500	0	500	0	0	0	Limited Shoumetsu Toshi Collab Capsules! ★ Tap banner for info!
20200609	1100	20200612	1100	90500	999999	0	0	1	2	-1	0	0	0	0	0	0	0	0	0	0	0	0	0		427	150	0	3928	0	0	6970	0	2500	0	500	0	30	0	Slay your foes with the mighty Vajiras! ★ Tap banner for info!
20200612	1100	20200615	1100	90500	999999	0	0	1	2	-1	0	0	0	0	0	0	0	0	0	0	0	0	0		445	150	0	3928	0	0	6970	0	2500	0	500	1	30	0	Ultimate Cat artillery, with a top-secret Legend?! ★ Tap banner for info!
20200612	1100	20200615	1100	90500	999999	0	0	1	1	511	150	0	3928	0	0	7000	0	2500	0	500	1	0	0	Last Chance! Shoumetsu Toshi Set with 11-Draw Guarantee!
20200615	1100	20200622	1100	90500	999999	0	0	0	2	-1	0	0	0	0	0	0	0	0	0	0	0	0	0		5	0	0	2	500	0	7000	0	2000	0	500	0	0	0	★ Limited Capsules ★ Pick up extra Catseyes in this special Capsule set!
20200615	1100	20200617	1100	90500	999999	0	0	1	1	430	150	0	0	0	0	6970	0	2500	0	500	0	30	0	Galaxy Gals, here from the future to win the day! ★ Tap banner for info!
20200616	1100	20200702	0	90500	999999	0	0	0	4	-1	0	0	0	0	0	0	0	0	0	0	0	0	0		-1	0	0	0	0	0	0	0	0	0	0	0	0	0		-1	0	0	0	0	0	0	0	0	0	0	0	0	0		44	0	300	0	0	0	5100	0	3500	0	1400	0	0	0	【Limited Event】 Special chance for XP and Catamins! ★ On thru 7/1!
20200617	1100	20200619	1100	90500	999999	0	0	1	1	487	150	0	0	0	0	6970	0	2500	0	500	0	30	0	Sharpshooter Saki is here to defend justice! ★ Tap banner for info!
20200619	1100	20200622	1100	90500	999999	0	0	1	1	501	150	0	0	0	0	6500	0	2600	0	900	0	0	0	Epicfest is here with 3 exclusive heroes and higher drop rates!
20200622	1100	20200629	1100	90600	999999	0	0	0	2	-1	0	0	0	0	0	0	0	0	0	0	0	0	0		3	0	300	0	400	0	2000	0	7000	0	600	0	0	0	Limited Capsules ★ Collect Catfruit by drawing from this set!
20200622	1100	20200624	1100	90600	999999	0	0	1	1	424	150	0	0	0	0	6970	0	2500	0	500	0	30	0	A wacky variety set of mighty Uber Cats! ★ Tap banner for info!
20200624	1100	20200626	1100	90600	999999	0	0	1	1	433	150	0	0	0	0	6970	0	2500	0	500	0	30	0	Ancient dragons of unmatched might! ★ Tap banner for info!
20200626	1100	20200629	1100	90600	999999	0	0	1	1	497	150	0	0	0	0	6970	0	2500	0	500	0	30	0	Hades of the Underworld lends his strength! ★ Tap banner for info!
[end]
