[start]
20180109	1100	20300101	1100	50700	999999	0	0	0	1	0	0	0	0	10000	0	0	0	0	0	0	0	0	0	
20160101	0	20300101	0	50700	999999	0	0	1	1	0	150	0	0	0	0	7500	0	2000	0	500	0	0	0	只有從這個轉蛋才能拿到的限定角色等著你喔！
20170101	0	20300101	0	80200	999999	0	0	2	3	0	30	0	0	0	0	7500	0	2000	0	500	0	0	0		0	30	0	0	0	0	7500	0	2000	0	500	0	0	0		0	30	0	0	0	0	7500	0	2000	0	500	0	0	0	
20170101	0	20300101	0	80200	999999	0	0	3	3	0	75	0	0	0	0	7500	0	2000	0	500	0	0	0		0	75	0	0	0	0	7500	0	2000	0	500	0	0	0		0	75	0	0	0	0	7500	0	2000	0	500	0	0	0	
20191223	1100	20300101	1100	90100	999999	0	0	1	4	-1	0	0	0	0	0	0	0	0	0	0	0	0	0		-1	0	0	0	0	0	0	0	0	0	0	0	0	0		-1	0	0	0	0	0	0	0	0	0	0	0	0	0		471	0	0	0	0	0	0	0	0	0	10000	0	0	0	必出超激稀有角色的白金轉蛋！快來獲得心儀的貓咪吧！
20200111	1100	20300101	1100	90100	999999	0	0	1	4	-1	0	0	0	0	0	0	0	0	0	0	0	0	0		-1	0	0	0	0	0	0	0	0	0	0	0	0	0		-1	0	0	0	0	0	0	0	0	0	0	0	0	0		480	0	0	0	0	0	0	0	0	0	10000	0	0	0	必出超激稀有角色的白金轉蛋！快來獲得心儀的貓咪吧！
20200210	1100	20200224	1100	90200	999999	0	0	1	1	414	150	0	3848	0	0	7000	0	2500	0	500	0	0	0	梅露可物語合作限定轉蛋！★全部都是合作活動的限定角色喔！
20200216	1100	20200302	0	90200	999999	0	0	0	4	-1	0	0	0	0	0	0	0	0	0	0	0	0	0		-1	0	0	0	0	0	0	0	0	0	0	0	0	0		-1	0	0	0	0	0	0	0	0	0	0	0	0	0		38	0	300	0	0	0	5100	0	3500	0	1400	0	0	0	限時開放★能夠獲得喵力達與XP的特別轉蛋！★3月1日為止！
20200218	1100	20200224	1100	90200	999999	0	0	1	1	414	150	0	0	0	0	7000	0	2500	0	500	0	0	0	梅露可物語合作限定轉蛋！★全部都是合作活動的限定角色喔！
20200218	1100	20200221	1100	90200	999999	0	0	1	2	-1	0	0	0	0	0	0	0	0	0	0	0	0	0		439	150	0	0	0	0	6970	0	2500	0	500	0	30	0	正義的暗黑英雄，貓咪軍團的異星戰士剋星！★點圖可以看詳細內容喔！
20200221	1100	20200224	1100	90200	999999	0	0	1	1	414	150	0	0	0	0	7000	0	2500	0	500	1	0	0	梅露可物語合作限定轉蛋！★11連轉超激確定活動中！
20200221	1100	20200224	1100	90200	999999	0	0	1	2	-1	0	0	0	0	0	0	0	0	0	0	0	0	0		433	150	0	0	0	0	6970	0	2500	0	500	1	30	0	角龍格拉迪歐斯參戰！壓倒性存在感的龍族們！★點圖可以看詳細內容喔！
20200224	1100	20200226	1100	90300	999999	0	0	1	1	442	150	0	0	0	0	6970	0	2500	0	500	0	30	0	貓咪世界的偉大眾神集結！想知道誰秘密參戰！？★點圖確認詳細吧！！
20200226	1100	20200228	1100	90300	999999	0	0	1	1	475	150	0	0	0	0	6970	0	2500	0	500	0	30	0	"金太郎"參戰！貓咪世界的最大級驚人進化！★點圖可以看詳細內容喔！
20200228	1100	20200302	1100	90300	999999	0	0	1	1	483	150	0	0	0	0	6500	0	2600	0	900	0	0	0	超強戰力角色「災難少女凱斯莉」參戰！★超激稀有出現率只有現在上升中！
20200228	1100	20300101	1100	90300	999999	0	0	1	4	-1	0	0	0	0	0	0	0	0	0	0	0	0	0		-1	0	0	0	0	0	0	0	0	0	0	0	0	0		-1	0	0	0	0	0	0	0	0	0	0	0	0	0		484	0	0	0	0	0	0	0	0	0	10000	0	0	0	必出超激稀有角色的白金轉蛋！快來獲得心儀的貓咪吧！
[end]
