[start]
20180109	1100	20300101	1100	50700	999999	0	0	0	1	0	0	0	0	10000	0	0	0	0	0	0	0	0	0	
20170101	0	20300101	0	80200	999999	0	0	2	3	0	30	0	0	0	0	7500	0	2000	0	500	0	0	0		0	30	0	0	0	0	7500	0	2000	0	500	0	0	0		0	30	0	0	0	0	7500	0	2000	0	500	0	0	0	
20170101	0	20300101	0	80200	999999	0	0	3	3	0	75	0	0	0	0	7500	0	2000	0	500	0	0	0		0	75	0	0	0	0	7500	0	2000	0	500	0	0	0		0	75	0	0	0	0	7500	0	2000	0	500	0	0	0	
20201009	1100	20300101	1100	90900	999999	0	0	1	4	-1	0	0	0	0	0	0	0	0	0	0	0	0	0		-1	0	0	0	0	0	0	0	0	0	0	0	0	0		-1	0	0	0	0	0	0	0	0	0	0	0	0	0		525	0	0	0	0	0	0	0	0	0	10000	0	0	0	必出超激稀有角色的白金轉蛋！快來獲得心儀的貓咪吧！
20201113	1100	20300101	1100	91000	999999	0	0	1	4	-1	0	0	0	0	0	0	0	0	0	0	0	0	0		-1	0	0	0	0	0	0	0	0	0	0	0	0	0		-1	0	0	0	0	0	0	0	0	0	0	0	0	0		543	0	0	0	0	0	0	0	0	0	10000	0	0	0	必出超激稀有角色的白金轉蛋！快來獲得心儀的貓咪吧！
20210212	000	20300101	1100	100200	999999	0	0	1	4	-1	0	0	0	0	0	0	0	0	0	0	0	0	0		-1	0	0	0	0	0	0	0	0	0	0	0	0	0		-1	0	0	0	0	0	0	0	0	0	0	0	0	0		556	0	0	0	0	0	0	0	0	0	10000	0	0	0	必出超激稀有角色的白金轉蛋！快來獲得心儀的貓咪吧！
20210216	1100	20210302	0	100200	999999	0	0	0	4	-1	0	0	0	0	0	0	0	0	0	0	0	0	0		-1	0	0	0	0	0	0	0	0	0	0	0	0	0		-1	0	0	0	0	0	0	0	0	0	0	0	0	0		59	0	300	0	0	0	5100	0	3500	0	1400	0	0	0	限時開放★能夠獲得喵力達與XP的特別轉蛋！★3月1日為止！
20210215	1100	20210301	1100	100200	999999	0	0	1	1	568	150	0	0	0	0	7000	0	2500	0	500	0	0	0	情人節期間限定超甜美♥轉蛋新登場！♥點圖確認詳細吧!!
20210224	1100	20210226	1100	100200	999999	0	0	1	2	-1	0	0	0	0	0	0	0	0	0	0	0	0	0		506	150	0	0	0	0	6970	0	2500	0	500	0	30	0	異世界召喚來的快樂美少女們！隱藏版美少女也參戰！★點圖確認詳細吧！！
20210226	1100	20210301	1100	100200	999999	0	0	1	1	568	150	0	0	0	0	7000	0	2500	0	500	1	0	0	情人節期間限定超甜美♥轉蛋新登場！♥點圖確認詳細吧!!
20210226	1100	20210301	1100	100200	999999	0	0	1	2	-1	0	0	0	0	0	0	0	0	0	0	0	0	0		475	150	0	0	0	0	6970	0	2500	0	500	1	30	0	貓咪世界最大級的驚人進化樣貌之古代勇者們！★點圖確認詳細吧!!
20210301	1100	20210315	1100	100201	999999	0	0	1	1	516	150	0	0	0	0	7000	0	2500	0	500	0	0	0	新超激稀有角色新增5隻！使徒參戰的合作轉蛋2nd新登場！★點圖確認詳細吧!!
20210301	1100	20210315	1100	100201	999999	0	0	1	2	-1	0	0	0	0	0	0	0	0	0	0	0	0	0		570	150	0	0	0	0	7000	0	2500	0	500	0	0	0	福音戰士為主角的合作轉蛋復刻登場！★點圖確認詳細吧!!
20210301	1100	20210303	1100	100201	999999	0	0	1	3	-1	0	0	0	0	0	0	0	0	0	0	0	0	0		-1	0	0	0	0	0	0	0	0	0	0	0	0	0		487	150	0	0	0	0	6970	0	2500	0	500	0	30	0	握有正義與黑暗之力，貓咪軍團的救世主來了！★點圖確認詳細吧!!
20210303	1100	20210305	1100	100201	999999	0	0	1	3	-1	0	0	0	0	0	0	0	0	0	0	0	0	0		-1	0	0	0	0	0	0	0	0	0	0	0	0	0		445	150	0	0	0	0	6970	0	2500	0	500	0	30	0	貓咪軍團珍藏的超級武器！神秘角色新登場！？★點圖可以看詳細內容喔！
20210305	1100	20210308	1100	100201	999999	0	0	1	1	555	150	0	0	0	0	6500	0	2600	0	900	0	0	0	新角色「幼獸加爾」參戰！★超激稀有出現率超上升的「超貓祭」進行中!!
20210305	1100	20210315	1100	100201	999999	0	0	1	2	-1	0	0	0	0	0	0	0	0	0	0	0	0	0		516	150	0	0	0	0	7000	0	2500	0	500	0	0	0	新超激稀有角色新增5隻！使徒參戰的合作轉蛋2nd新登場！★點圖確認詳細吧!!
20210305	1100	20210315	1100	100201	999999	0	0	1	3	-1	0	0	0	0	0	0	0	0	0	0	0	0	0		-1	0	0	0	0	0	0	0	0	0	0	0	0	0		570	150	0	0	0	0	7000	0	2500	0	500	0	0	0	福音戰士為主角的合作轉蛋復刻登場！★點圖確認詳細吧!!
20210308	1100	20210315	1100	100201	999999	0	0	1	1	516	150	0	0	0	0	7000	0	2500	0	500	0	0	0	新超激稀有角色新增5隻！使徒參戰的合作轉蛋2nd新登場！★點圖確認詳細吧!!
20210308	1100	20210315	1100	100201	999999	0	0	1	2	-1	0	0	0	0	0	0	0	0	0	0	0	0	0		570	150	0	0	0	0	7000	0	2500	0	500	0	0	0	福音戰士為主角的合作轉蛋復刻登場！★點圖確認詳細吧!!
20210308	1100	20210310	1100	100201	999999	0	0	1	3	-1	0	0	0	0	0	0	0	0	0	0	0	0	0		-1	0	0	0	0	0	0	0	0	0	0	0	0	0		430	150	0	0	0	0	6970	0	2500	0	500	0	30	0	打倒阻礙的敵人！戰鬥力十足又可愛的電腦少女們！★點圖可看詳細內容！
20210310	1100	20210312	1100	100201	999999	0	0	1	3	-1	0	0	0	0	0	0	0	0	0	0	0	0	0		-1	0	0	0	0	0	0	0	0	0	0	0	0	0		427	150	0	0	0	0	6970	0	2500	0	500	0	30	0	對上黑敵能力大爆發！有強大效果的戰國武將們！★點圖確認詳細吧！！
20210312	1100	20210315	1100	100201	999999	0	0	1	1	516	150	0	0	0	0	7000	0	2500	0	500	1	0	0	新超激稀有角色新增5隻！使徒參戰的合作轉蛋2nd新登場！★點圖確認詳細吧!!
20210312	1100	20210315	1100	100201	999999	0	0	1	2	-1	0	0	0	0	0	0	0	0	0	0	0	0	0		570	150	0	0	0	0	7000	0	2500	0	500	1	0	0	福音戰士為主角的合作轉蛋復刻登場！★點圖確認詳細吧!!
20210312	1100	20210315	1100	100201	999999	0	0	1	3	-1	0	0	0	0	0	0	0	0	0	0	0	0	0		-1	0	0	0	0	0	0	0	0	0	0	0	0	0		424	150	0	0	0	0	6970	0	2500	0	500	1	30	0	豐富多樣性的世界第一即戰力貓咪們！★點圖確認詳細吧!!
[end]
